\relax 
\providecommand\hyper@newdestlabel[2]{}
\providecommand\HyperFirstAtBeginDocument{\AtBeginDocument}
\HyperFirstAtBeginDocument{\ifx\hyper@anchor\@undefined
\global\let\oldcontentsline\contentsline
\gdef\contentsline#1#2#3#4{\oldcontentsline{#1}{#2}{#3}}
\global\let\oldnewlabel\newlabel
\gdef\newlabel#1#2{\newlabelxx{#1}#2}
\gdef\newlabelxx#1#2#3#4#5#6{\oldnewlabel{#1}{{#2}{#3}}}
\AtEndDocument{\ifx\hyper@anchor\@undefined
\let\contentsline\oldcontentsline
\let\newlabel\oldnewlabel
\fi}
\fi}
\global\let\hyper@last\relax 
\gdef\HyperFirstAtBeginDocument#1{#1}
\providecommand\HyField@AuxAddToFields[1]{}
\providecommand\HyField@AuxAddToCoFields[2]{}
\citation{ghemawat}
\citation{hadoop}
\citation{hadoop}
\citation{Ganapathi:EECS-2009-181}
\citation{cmureport}
\citation{kambatla}
\citation{starfish}
\citation{mronline}
\citation{ppabs}
\citation{kambatla}
\citation{starfish}
\citation{mronline}
\citation{ppabs}
\citation{ppabs}
\@writefile{toc}{\contentsline {section}{\numberline {I}Introduction}{1}{section.1}}
\newlabel{intro}{{I}{1}{Introduction}{section.1}{}}
\citation{Spall92multivariatestochastic}
\@writefile{lof}{\contentsline {figure}{\numberline {1}{\ignorespaces Prior art \textit  {vs} our approach to parameter tuning in Hadoop.\relax }}{2}{figure.caption.1}}
\providecommand*\caption@xref[2]{\@setref\relax\@undefined{#1}}
\newlabel{approaches}{{1}{2}{Prior art \textit {vs} our approach to parameter tuning in Hadoop.\relax }{figure.caption.1}{}}
\@writefile{toc}{\contentsline {subsection}{\numberline {\unhbox \voidb@x \hbox {I-A}}Organisation of the Paper}{2}{subsection.1.1}}
\@writefile{toc}{\contentsline {section}{\numberline {II}Automatic Parameter Tuning}{2}{section.2}}
\newlabel{autotune}{{II}{2}{Automatic Parameter Tuning}{section.2}{}}
\@writefile{toc}{\contentsline {subsection}{\numberline {\unhbox \voidb@x \hbox {II-A}}Bottlenecks in Parameter Tuning}{2}{subsection.2.1}}
\@writefile{lof}{\contentsline {figure}{\numberline {2}{\ignorespaces The simulation optimization algorithm makes use of the \emph  {feedback} received from the system/simulator to tune the parameters. Here $n=1,2,\ldots  $ denotes the trial number, $\theta _n$ is the parameter setting at the $n^{th}$ trial and $f(\cdot )$ is the performance measure. The map $h$ makes use of past observations to compute the current parameter setting.\relax }}{2}{figure.caption.2}}
\newlabel{bbopti}{{2}{2}{The simulation optimization algorithm makes use of the \emph {feedback} received from the system/simulator to tune the parameters. Here $n=1,2,\ldots $ denotes the trial number, $\theta _n$ is the parameter setting at the $n^{th}$ trial and $f(\cdot )$ is the performance measure. The map $h$ makes use of past observations to compute the current parameter setting.\relax }{figure.caption.2}{}}
\citation{chen96}
\@writefile{toc}{\contentsline {subsection}{\numberline {\unhbox \voidb@x \hbox {II-B}}Noisy Gradient based Optimization}{3}{subsection.2.2}}
\newlabel{ngrad}{{1}{3}{Noisy Gradient based Optimization}{equation.2.1}{}}
\@writefile{lof}{\contentsline {figure}{\numberline {3}{\ignorespaces Noisy Gradient scheme. Notice that the noise can be filtered by an appropriate choice of diminishing step sizes.\relax }}{3}{figure.caption.3}}
\newlabel{noisegrad}{{3}{3}{Noisy Gradient scheme. Notice that the noise can be filtered by an appropriate choice of diminishing step sizes.\relax }{figure.caption.3}{}}
\@writefile{toc}{\contentsline {subsection}{\numberline {\unhbox \voidb@x \hbox {II-C}}Simultaneous Perturbation Stochastic Approximation (SPSA)}{3}{subsection.2.3}}
\newlabel{spsa}{{\unhbox \voidb@x \hbox {II-C}}{3}{Simultaneous Perturbation Stochastic Approximation (SPSA)}{subsection.2.3}{}}
\newlabel{partial}{{2}{3}{Simultaneous Perturbation Stochastic Approximation (SPSA)}{equation.2.2}{}}
\newlabel{indep}{{1}{3}{Simultaneous Perturbation Stochastic Approximation (SPSA)}{assumption.1}{}}
\@writefile{toc}{\contentsline {subsection}{\numberline {\unhbox \voidb@x \hbox {II-D}}Noisy Gradient Recovery from Random Perturbations}{3}{subsection.2.4}}
\newlabel{gradest}{{3}{3}{Noisy Gradient Recovery from Random Perturbations}{equation.2.3}{}}
\citation{kushner}
\citation{kushner}
\citation{kushner}
\citation{hadoop}
\newlabel{gradestexp}{{4}{4}{Noisy Gradient Recovery from Random Perturbations}{equation.2.4}{}}
\@writefile{loa}{\contentsline {algorithm}{\numberline {1}{\ignorespaces Simultaneous Perturbation Stochastic Approximation\relax }}{4}{algorithm.1}}
\newlabel{algo}{{1}{4}{Simultaneous Perturbation Stochastic Approximation\relax }{algorithm.1}{}}
\newlabel{gres}{{6}{4}{Simultaneous Perturbation Stochastic Approximation\relax }{ALC@unique.6}{}}
\newlabel{update}{{7}{4}{Simultaneous Perturbation Stochastic Approximation\relax }{ALC@unique.7}{}}
\newlabel{politer}{{1}{4}{Simultaneous Perturbation Stochastic Approximation\relax }{ALC@unique.9}{}}
\newlabel{stocrec}{{5}{4}{Noisy Gradient Recovery from Random Perturbations}{equation.2.5}{}}
\@writefile{toc}{\contentsline {subsection}{\numberline {\unhbox \voidb@x \hbox {II-E}}Applying SPSA to Hadoop Parameter tuning}{4}{subsection.2.5}}
\newlabel{setup}{{\unhbox \voidb@x \hbox {II-E}}{4}{Applying SPSA to Hadoop Parameter tuning}{subsection.2.5}{}}
\@writefile{toc}{\contentsline {section}{\numberline {III}Experimental Evaluation}{4}{section.3}}
\newlabel{exp}{{III}{4}{Experimental Evaluation}{section.3}{}}
\citation{mronline}
\citation{starfish}
\citation{ppabs}
\citation{starfish}
\citation{ppabs}
\@writefile{toc}{\contentsline {subsection}{\numberline {\unhbox \voidb@x \hbox {III-A}}Parameter Selection}{5}{subsection.3.1}}
\@writefile{toc}{\contentsline {subsection}{\numberline {\unhbox \voidb@x \hbox {III-B}}Cluster Setup}{5}{subsection.3.2}}
\@writefile{toc}{\contentsline {subsection}{\numberline {\unhbox \voidb@x \hbox {III-C}}Benchmark Applications}{5}{subsection.3.3}}
\@writefile{toc}{\contentsline {subsection}{\numberline {\unhbox \voidb@x \hbox {III-D}}Learning Phase}{5}{subsection.3.4}}
\@writefile{toc}{\contentsline {subsection}{\numberline {\unhbox \voidb@x \hbox {III-E}}Experimental Setup}{5}{subsection.3.5}}
\citation{starfish}
\citation{mronline}
\citation{starfish}
\citation{starfish}
\citation{starfish}
\@writefile{toc}{\contentsline {subsection}{\numberline {\unhbox \voidb@x \hbox {III-F}}Discussion of Results}{6}{subsection.3.6}}
\@writefile{toc}{\contentsline {subsection}{\numberline {\unhbox \voidb@x \hbox {III-G}}Advantages of SPSA}{6}{subsection.3.7}}
\@writefile{toc}{\contentsline {section}{\numberline {IV}Conclusions and Future Work}{6}{section.4}}
\newlabel{concl}{{IV}{6}{Conclusions and Future Work}{section.4}{}}
\citation{shanahan2015large}
\@writefile{lot}{\contentsline {table}{\numberline {I}{\ignorespaces  Default value of parameters and their values tuned by SPSA (the last three parameters are defined for Hadoop v2)\relax }}{7}{table.caption.4}}
\newlabel{tab:opt_parameter}{{I}{7}{Default value of parameters and their values tuned by SPSA (the last three parameters are defined for Hadoop v2)\relax }{table.caption.4}{}}
\@writefile{lof}{\contentsline {figure}{\numberline {4}{\ignorespaces Convergence of SPSA for different benchmarks on Hadoop v1 and v2\relax }}{7}{figure.caption.5}}
\newlabel{fig:spsaConv}{{4}{7}{Convergence of SPSA for different benchmarks on Hadoop v1 and v2\relax }{figure.caption.5}{}}
\@writefile{lot}{\contentsline {table}{\numberline {II}{\ignorespaces Starfish, PPABS and SPSA : Comparison of Approaches\relax }}{7}{table.caption.8}}
\newlabel{tab:rel}{{II}{7}{Starfish, PPABS and SPSA : Comparison of Approaches\relax }{table.caption.8}{}}
\bibstyle{IEEEtran}
\bibdata{IEEEabrv,ref}
\bibcite{ghemawat}{1}
\bibcite{hadoop}{2}
\bibcite{Ganapathi:EECS-2009-181}{3}
\bibcite{cmureport}{4}
\bibcite{kambatla}{5}
\bibcite{starfish}{6}
\bibcite{mronline}{7}
\bibcite{ppabs}{8}
\bibcite{Spall92multivariatestochastic}{9}
\bibcite{chen96}{10}
\bibcite{kushner}{11}
\bibcite{shanahan2015large}{12}
\@writefile{lof}{\contentsline {figure}{\numberline {5}{\ignorespaces Performance comparison of Default settings, Starfish and SPSA for benchmark applications (Hadoop v1)\relax }}{8}{figure.caption.6}}
\newlabel{fig:perf1}{{5}{8}{Performance comparison of Default settings, Starfish and SPSA for benchmark applications (Hadoop v1)\relax }{figure.caption.6}{}}
\@writefile{lof}{\contentsline {figure}{\numberline {6}{\ignorespaces Performance comparison of Default settings, PPABS and SPSA for benchmark applications (Hadoop v2)\relax }}{8}{figure.caption.7}}
\newlabel{fig:perf2}{{6}{8}{Performance comparison of Default settings, PPABS and SPSA for benchmark applications (Hadoop v2)\relax }{figure.caption.7}{}}
\@writefile{toc}{\contentsline {section}{References}{8}{section*.9}}
