1	32.083333
2	36.200000
3	28.450000
4	28.783333
5	25.000000
6	28.033333
7	54.550000
8	19.683333
9	20.533333
10	21.950000
11	42.800000
12	22.900000
13	22.716667
14	22.783333
15	43.400000
16	21.883333
17	12.733333
18	13.416667
19	11.566667
20	10.966667
21	11.150000
22	10.483333
23	9.150000
24	11.483333
25	13.216667
