3.750000e-01	8.000000e-01	9.009009e-03	2.020202e-02	0.000000e+00	4.040404e-02	0.000000e+00	0.000000e+00	7.500000e-01	6.250000e-01	9.981996e-02	0.000000e+00	8.181818e-01	4.040404e-02	5.000000e-01	6.640000e+02
3.850000e-01	7.900000e-01	1.900901e-02	1.020202e-02	-1.000000e-02	3.040404e-02	1.000000e-02	-1.000000e-02	7.400000e-01	6.350000e-01	1.098200e-01	1.000000e-02	8.081818e-01	5.040404e-02	3.300000e-01	1.827000e+03
1.811667e-01	9.900000e-01	1.000000e-02	2.140354e-01	1.938333e-01	2.342374e-01	1.938333e-01	1.938333e-01	9.438333e-01	4.311667e-01	1.000000e-02	1.000000e-02	9.900000e-01	1.000000e-02	6.700000e-01	5.110000e+02
1.711667e-01	9.800000e-01	2.000000e-02	2.040354e-01	1.838333e-01	2.242374e-01	2.038333e-01	1.838333e-01	9.538333e-01	4.411667e-01	2.000000e-02	1.000000e-02	9.900000e-01	1.000000e-02	8.400000e-01	4.790000e+02
1.758333e-01	9.846667e-01	1.533333e-02	2.087020e-01	1.885000e-01	2.289040e-01	1.991667e-01	1.885000e-01	9.491667e-01	4.365000e-01	1.533333e-02	1.000000e-02	9.900000e-01	1.000000e-02	8.400000e-01	4.800000e+02
1.658333e-01	9.900000e-01	2.533333e-02	1.987020e-01	1.785000e-01	2.389040e-01	2.091667e-01	1.785000e-01	9.591667e-01	4.265000e-01	2.533333e-02	1.000000e-02	9.900000e-01	2.000000e-02	9.900000e-01	4.870000e+02
1.770000e-01	9.835000e-01	1.416667e-02	2.098687e-01	1.896667e-01	2.277374e-01	1.980000e-01	1.896667e-01	9.480000e-01	4.376667e-01	1.416667e-02	1.116667e-02	9.888333e-01	1.000000e-02	6.700000e-01	5.090000e+02
1.870000e-01	9.735000e-01	1.000000e-02	1.998687e-01	1.796667e-01	2.177374e-01	1.880000e-01	1.796667e-01	9.580000e-01	4.476667e-01	1.000000e-02	2.116667e-02	9.900000e-01	2.000000e-02	5.000000e-01	6.400000e+02
1.551667e-01	9.900000e-01	3.600000e-02	2.317020e-01	2.115000e-01	2.495707e-01	2.198333e-01	2.115000e-01	9.261667e-01	4.158333e-01	3.600000e-02	1.000000e-02	9.670000e-01	1.000000e-02	8.400000e-01	4.970000e+02
1.651667e-01	9.900000e-01	2.600000e-02	2.217020e-01	2.215000e-01	2.395707e-01	2.298333e-01	2.015000e-01	9.361667e-01	4.258333e-01	4.600000e-02	1.000000e-02	9.770000e-01	1.000000e-02	9.900000e-01	5.100000e+02
1.530000e-01	9.878333e-01	3.816667e-02	2.338687e-01	2.093333e-01	2.517374e-01	2.176667e-01	2.136667e-01	9.240000e-01	4.136667e-01	3.383333e-02	1.216667e-02	9.648333e-01	1.216667e-02	6.700000e-01	5.200000e+02
1.430000e-01	9.900000e-01	2.816667e-02	2.238687e-01	1.993333e-01	2.417374e-01	2.276667e-01	2.236667e-01	9.340000e-01	4.236667e-01	2.383333e-02	2.216667e-02	9.748333e-01	2.216667e-02	8.400000e-01	5.150000e+02
1.521667e-01	9.886667e-01	3.733333e-02	2.330354e-01	2.085000e-01	2.509040e-01	2.185000e-01	2.145000e-01	9.248333e-01	4.145000e-01	3.300000e-02	1.300000e-02	9.656667e-01	1.300000e-02	8.400000e-01	4.890000e+02
1.621667e-01	9.786667e-01	2.733333e-02	2.430354e-01	2.185000e-01	2.609040e-01	2.285000e-01	2.045000e-01	9.148333e-01	4.045000e-01	4.300000e-02	1.000000e-02	9.556667e-01	2.300000e-02	6.700000e-01	5.250000e+02
1.461667e-01	9.900000e-01	4.333333e-02	2.270354e-01	2.025000e-01	2.449040e-01	2.125000e-01	2.205000e-01	9.308333e-01	4.205000e-01	2.700000e-02	1.900000e-02	9.716667e-01	1.000000e-02	9.900000e-01	5.080000e+02
1.361667e-01	9.800000e-01	3.333333e-02	2.370354e-01	2.125000e-01	2.549040e-01	2.225000e-01	2.305000e-01	9.408333e-01	4.305000e-01	3.700000e-02	1.000000e-02	9.816667e-01	2.000000e-02	8.200000e-01	5.220000e+02
1.485000e-01	9.900000e-01	4.566667e-02	2.247020e-01	2.001667e-01	2.425707e-01	2.101667e-01	2.181667e-01	9.285000e-01	4.181667e-01	2.466667e-02	2.133333e-02	9.693333e-01	1.000000e-02	9.900000e-01	5.120000e+02
1.385000e-01	9.900000e-01	3.566667e-02	2.347020e-01	1.901667e-01	2.325707e-01	2.201667e-01	2.081667e-01	9.385000e-01	4.281667e-01	1.466667e-02	3.133333e-02	9.793333e-01	1.000000e-02	8.200000e-01	5.270000e+02
1.510000e-01	9.875000e-01	4.816667e-02	2.222020e-01	2.026667e-01	2.450707e-01	2.076667e-01	2.206667e-01	9.260000e-01	4.156667e-01	2.716667e-02	1.883333e-02	9.668333e-01	1.250000e-02	9.900000e-01	5.250000e+02
1.610000e-01	9.775000e-01	3.816667e-02	2.322020e-01	1.926667e-01	2.550707e-01	2.176667e-01	2.306667e-01	9.160000e-01	4.056667e-01	3.716667e-02	2.883333e-02	9.768333e-01	1.000000e-02	8.200000e-01	5.180000e+02
1.521667e-01	9.863333e-01	4.700000e-02	2.233687e-01	2.015000e-01	2.462374e-01	2.088333e-01	2.218333e-01	9.248333e-01	4.145000e-01	2.833333e-02	2.000000e-02	9.680000e-01	1.133333e-02	8.200000e-01	5.240000e+02
1.421667e-01	9.763333e-01	3.700000e-02	2.333687e-01	1.915000e-01	2.362374e-01	2.188333e-01	2.318333e-01	9.148333e-01	4.045000e-01	3.833333e-02	1.000000e-02	9.580000e-01	1.000000e-02	9.900000e-01	5.190000e+02
1.514167e-01	9.855833e-01	4.625000e-02	2.241187e-01	2.007500e-01	2.454874e-01	2.095833e-01	2.225833e-01	9.240833e-01	4.137500e-01	2.908333e-02	1.925000e-02	9.672500e-01	1.058333e-02	9.900000e-01	5.430000e+02
1.614167e-01	9.755833e-01	3.625000e-02	2.341187e-01	2.107500e-01	2.354874e-01	1.995833e-01	2.325833e-01	9.340833e-01	4.037500e-01	3.908333e-02	2.925000e-02	9.572500e-01	1.000000e-02	8.200000e-01	5.360000e+02
1.523617e-01	9.846383e-01	4.530500e-02	2.250637e-01	2.016950e-01	2.445424e-01	2.086383e-01	2.235283e-01	9.250283e-01	4.128050e-01	3.002833e-02	2.019500e-02	9.663050e-01	1.000000e-02	8.200000e-01	5.520000e+02
