\relax 
\providecommand\hyper@newdestlabel[2]{}
\providecommand\HyperFirstAtBeginDocument{\AtBeginDocument}
\HyperFirstAtBeginDocument{\ifx\hyper@anchor\@undefined
\global\let\oldcontentsline\contentsline
\gdef\contentsline#1#2#3#4{\oldcontentsline{#1}{#2}{#3}}
\global\let\oldnewlabel\newlabel
\gdef\newlabel#1#2{\newlabelxx{#1}#2}
\gdef\newlabelxx#1#2#3#4#5#6{\oldnewlabel{#1}{{#2}{#3}}}
\AtEndDocument{\ifx\hyper@anchor\@undefined
\let\contentsline\oldcontentsline
\let\newlabel\oldnewlabel
\fi}
\fi}
\global\let\hyper@last\relax 
\gdef\HyperFirstAtBeginDocument#1{#1}
\providecommand\HyField@AuxAddToFields[1]{}
\providecommand\HyField@AuxAddToCoFields[2]{}
\citation{pavlo}
\citation{ghemawat}
\citation{hadoop}
\citation{kambatla}
\citation{pavlo}
\@writefile{toc}{\contentsline {section}{\numberline {1}Introduction}{\thepage }{section.1}}
\newlabel{intro}{{1}{\thepage }{Introduction}{section.1}{}}
\citation{kambatla}
\citation{starfish}
\citation{aroma}
\citation{mronline}
\citation{ppabs}
\citation{jellyfish}
\citation{kambatla}
\citation{starfish}
\citation{jellyfish}
\citation{aroma}
\citation{mronline}
\citation{ppabs}
\citation{ppabs}
\citation{spall}
\citation{Babu10towardsautomatic}
\citation{starfish}
\citation{ghemawat}
\citation{url_6}
\citation{hadoop}
\citation{yarn}
\@writefile{toc}{\contentsline {subsection}{\numberline {1.1}Our Contribution}{\thepage }{subsection.1.1}}
\@writefile{toc}{\contentsline {subsection}{\numberline {1.2}Organisation of the Paper}{\thepage }{subsection.1.2}}
\@writefile{toc}{\contentsline {section}{\numberline {2}Hadoop}{\thepage }{section.2}}
\newlabel{hadoop}{{2}{\thepage }{Hadoop}{section.2}{}}
\@writefile{toc}{\contentsline {subsection}{\numberline {2.1}Hadoop Distributed File System}{\thepage }{subsection.2.1}}
\@writefile{toc}{\contentsline {subsection}{\numberline {2.2}MapReduce}{\thepage }{subsection.2.2}}
\citation{Ganapathi:EECS-2009-181}
\citation{cmureport}
\citation{Ganapathi:EECS-2009-181}
\@writefile{toc}{\contentsline {subsection}{\numberline {2.3}MapReduce Data Flow Analysis}{\thepage }{subsection.2.3}}
\@writefile{toc}{\contentsline {subsubsection}{\numberline {2.3.1}Map Phase}{\thepage }{subsubsection.2.3.1}}
\@writefile{toc}{\contentsline {subsubsection}{\numberline {2.3.2}Reduce Phase}{\thepage }{subsubsection.2.3.2}}
\@writefile{toc}{\contentsline {subsubsection}{\numberline {2.3.3}Cross-Parameter Interaction}{\thepage }{subsubsection.2.3.3}}
\@writefile{toc}{\contentsline {section}{\numberline {3}Related work}{\thepage }{section.3}}
\newlabel{relatedwork}{{3}{\thepage }{Related work}{section.3}{}}
\citation{cmureport}
\citation{cmureport}
\citation{starfish}
\citation{starfish}
\citation{journals/pvldb/HerodotouB11}
\citation{aroma}
\citation{ppabs}
\citation{aroma}
\citation{ppabs}
\citation{mronline}
\citation{yarn}
\citation{microsoft}
\citation{cloudera}
\citation{journals/pvldb/HerodotouB11}
\citation{ppabs}
\@writefile{lof}{\contentsline {figure}{\numberline {1}{\ignorespaces MapReduce working\relax }}{\thepage }{figure.caption.4}}
\providecommand*\caption@xref[2]{\@setref\relax\@undefined{#1}}
\newlabel{hadooponearch}{{1}{\thepage }{MapReduce working\relax }{figure.caption.4}{}}
\@writefile{toc}{\contentsline {subsection}{\numberline {3.1}Motivation for Our Approach}{\thepage }{subsection.3.1}}
\@writefile{lof}{\contentsline {figure}{\numberline {2}{\ignorespaces Prior art vs. our approach to parameter tuning in Hadoop.\relax }}{\thepage }{figure.caption.5}}
\newlabel{approaches}{{2}{\thepage }{Prior art vs. our approach to parameter tuning in Hadoop.\relax }{figure.caption.5}{}}
\citation{tsc}
\citation{uav}
\citation{remotesensing}
\citation{satellite}
\citation{airlines}
\@writefile{toc}{\contentsline {section}{\numberline {4}Automatic Parameter Tuning}{\thepage }{section.4}}
\newlabel{autotune}{{4}{\thepage }{Automatic Parameter Tuning}{section.4}{}}
\@writefile{toc}{\contentsline {subsection}{\numberline {4.1}Bottlenecks in Parameter Tuning}{\thepage }{subsection.4.1}}
\@writefile{lof}{\contentsline {figure}{\numberline {3}{\ignorespaces The black-box optimization algorithm makes use of the \emph  {feedback} received from the system/simulator to tune the parameters. Here $n=1,2,\ldots  $ denotes the trial number, $\theta _n$ is the parameter setting at the $n^{th}$ trial and $f(\cdot )$ is the performance measure. The map $h$ makes use of past observations to compute the current parameter setting.\relax }}{\thepage }{figure.caption.6}}
\newlabel{bbopti}{{3}{\thepage }{The black-box optimization algorithm makes use of the \emph {feedback} received from the system/simulator to tune the parameters. Here $n=1,2,\ldots $ denotes the trial number, $\theta _n$ is the parameter setting at the $n^{th}$ trial and $f(\cdot )$ is the performance measure. The map $h$ makes use of past observations to compute the current parameter setting.\relax }{figure.caption.6}{}}
\@writefile{toc}{\contentsline {subsection}{\numberline {4.2}Noisy Gradient based optimization}{\thepage }{subsection.4.2}}
\newlabel{ngrad}{{1}{\thepage }{Noisy Gradient based optimization}{equation.4.1}{}}
\@writefile{lof}{\contentsline {figure}{\numberline {4}{\ignorespaces Noisy Gradient scheme. Notice that the noise can be filtered by an appropriate choice of diminishing step sizes.\relax }}{\thepage }{figure.caption.7}}
\newlabel{noisegrad}{{4}{\thepage }{Noisy Gradient scheme. Notice that the noise can be filtered by an appropriate choice of diminishing step sizes.\relax }{figure.caption.7}{}}
\citation{spall}
\citation{chen96}
\citation{chen97}
\@writefile{toc}{\contentsline {subsection}{\numberline {4.3}Simultaneous Perturbation \\Stochastic Approximation (SPSA)}{\thepage }{subsection.4.3}}
\newlabel{spsa}{{4.3}{\thepage }{Simultaneous Perturbation \\Stochastic Approximation (SPSA)}{subsection.4.3}{}}
\newlabel{partial}{{2}{\thepage }{Simultaneous Perturbation \\Stochastic Approximation (SPSA)}{equation.4.2}{}}
\newlabel{indep}{{1}{\thepage }{Simultaneous Perturbation \\Stochastic Approximation (SPSA)}{assumption.1}{}}
\@writefile{toc}{\contentsline {subsection}{\numberline {4.4}Noisy Gradient Recovery from Random Perturbations}{\thepage }{subsection.4.4}}
\newlabel{gradest}{{3}{\thepage }{Noisy Gradient Recovery from Random Perturbations}{equation.4.3}{}}
\newlabel{gradestexp}{{4}{\thepage }{Noisy Gradient Recovery from Random Perturbations}{equation.4.4}{}}
\@writefile{loa}{\contentsline {algorithm}{\numberline {1}{\ignorespaces Simultaneous Perturbation Stochastic Approximation\relax }}{\thepage }{algorithm.1}}
\newlabel{algo}{{1}{\thepage }{Simultaneous Perturbation Stochastic Approximation\relax }{algorithm.1}{}}
\newlabel{gres}{{6}{\thepage }{Simultaneous Perturbation Stochastic Approximation\relax }{ALC@unique.6}{}}
\newlabel{update}{{7}{\thepage }{Simultaneous Perturbation Stochastic Approximation\relax }{ALC@unique.7}{}}
\newlabel{politer}{{1}{\thepage }{Simultaneous Perturbation Stochastic Approximation\relax }{ALC@unique.9}{}}
\citation{SA}
\citation{kushner}
\citation{url_4}
\newlabel{schspsa}{{\caption@xref {schspsa}{ on input line 35}}{\thepage }{Noisy Gradient Recovery from Random Perturbations}{figure.caption.8}{}}
\@writefile{lof}{\contentsline {figure}{\numberline {5}{\ignorespaces SPSA. Gradient is computed by perturbing all the co-ordinates. Notice the \emph  {sytem-in-loop} nature of the SPSA based tuning.\relax }}{\thepage }{figure.caption.8}}
\@writefile{toc}{\contentsline {subsection}{\numberline {4.5}Convergence Analysis}{\thepage }{subsection.4.5}}
\newlabel{stocrec}{{5}{\thepage }{Convergence Analysis}{equation.4.5}{}}
\newlabel{ss}{{6}{\thepage }{Convergence Analysis}{equation.4.6}{}}
\newlabel{conv}{{1}{\thepage }{Convergence Analysis}{theorem.1}{}}
\@writefile{toc}{\contentsline {section}{\numberline {5}Applying SPSA to Hadoop Parameter tuning}{\thepage }{section.5}}
\newlabel{setup}{{5}{\thepage }{Applying SPSA to Hadoop Parameter tuning}{section.5}{}}
\@writefile{toc}{\contentsline {subsection}{\numberline {5.1}Mapping the Parameters}{\thepage }{subsection.5.1}}
\@writefile{toc}{\contentsline {subsection}{\numberline {5.2}Perturbation Sequences and Step-Sizes}{\thepage }{subsection.5.2}}
\@writefile{toc}{\contentsline {section}{\numberline {6}Experimental Evaluation}{\thepage }{section.6}}
\newlabel{exp}{{6}{\thepage }{Experimental Evaluation}{section.6}{}}
\citation{hadoop}
\citation{puma}
\@writefile{toc}{\contentsline {subsection}{\numberline {6.1}Parameter Selection}{\thepage }{subsection.6.1}}
\@writefile{toc}{\contentsline {subsection}{\numberline {6.2}Cluster Setup}{\thepage }{subsection.6.2}}
\@writefile{toc}{\contentsline {subsection}{\numberline {6.3}Benchmark Applications}{\thepage }{subsection.6.3}}
\@writefile{toc}{\contentsline {subsection}{\numberline {6.4}SPSA Iterations}{\thepage }{subsection.6.4}}
\@writefile{toc}{\contentsline {subsection}{\numberline {6.5}Optimization Settings}{\thepage }{subsection.6.5}}
\citation{Spall92multivariatestochastic}
\citation{starfish}
\citation{ppabs}
\citation{starfish}
\citation{ppabs}
\@writefile{toc}{\contentsline {subsection}{\numberline {6.6}Comparison with Related Work}{\thepage }{subsection.6.6}}
\@writefile{toc}{\contentsline {subsection}{\numberline {6.7}Discussion of Results}{\thepage }{subsection.6.7}}
\@writefile{toc}{\contentsline {subsection}{\numberline {6.8}Advantages of SPSA}{\thepage }{subsection.6.8}}
\@writefile{lot}{\contentsline {table}{\numberline {1}{\ignorespaces  Default value of parameters and their values tuned by SPSA (the last three parameters are defined for Hadoop v2)\relax }}{\thepage }{table.caption.9}}
\newlabel{tab:opt_parameter}{{1}{\thepage }{Default value of parameters and their values tuned by SPSA (the last three parameters are defined for Hadoop v2)\relax }{table.caption.9}{}}
\@writefile{lof}{\contentsline {figure}{\numberline {6}{\ignorespaces Performance of SPSA for different benchmarks on Hadoop v1\relax }}{\thepage }{figure.caption.10}}
\newlabel{fig:spsaConv}{{6}{\thepage }{Performance of SPSA for different benchmarks on Hadoop v1\relax }{figure.caption.10}{}}
\@writefile{lot}{\contentsline {table}{\numberline {2}{\ignorespaces Starfish, PPABS and SPSA : Comparison of Approaches\relax }}{\thepage }{table.caption.14}}
\newlabel{tab:rel}{{2}{\thepage }{Starfish, PPABS and SPSA : Comparison of Approaches\relax }{table.caption.14}{}}
\citation{qn-sf}
\citation{rdsa}
\bibstyle{abbrv}
\@writefile{lof}{\contentsline {figure}{\numberline {7}{\ignorespaces Performance of SPSA for different benchmarks on Hadoop v2\relax }}{\thepage }{figure.caption.11}}
\newlabel{fig:spsaConv2}{{7}{\thepage }{Performance of SPSA for different benchmarks on Hadoop v2\relax }{figure.caption.11}{}}
\@writefile{toc}{\contentsline {section}{\numberline {7}Conclusions and Future Work}{\thepage }{section.7}}
\newlabel{concl}{{7}{\thepage }{Conclusions and Future Work}{section.7}{}}
\@writefile{lof}{\contentsline {figure}{\numberline {8}{\ignorespaces Performance comparison of SPSA, Starfish and Default settings for benchmark applications (MapReduce v1)\relax }}{\thepage }{figure.caption.12}}
\newlabel{fig:perf}{{8}{\thepage }{Performance comparison of SPSA, Starfish and Default settings for benchmark applications (MapReduce v1)\relax }{figure.caption.12}{}}
\@writefile{lof}{\contentsline {figure}{\numberline {9}{\ignorespaces Performance comparison of Default settings, SPSA and PPABS for benchmark applications (Hadoop v2)\relax }}{\thepage }{figure.caption.13}}
\newlabel{fig:perf2}{{9}{\thepage }{Performance comparison of Default settings, SPSA and PPABS for benchmark applications (Hadoop v2)\relax }{figure.caption.13}{}}
\bibdata{ref}
\bibcite{cloudera}{1}
\bibcite{url_6}{2}
\bibcite{microsoft}{3}
\bibcite{url_4}{4}
\bibcite{puma}{5}
\bibcite{uav}{6}
\bibcite{Babu10towardsautomatic}{7}
\bibcite{SA}{8}
\bibcite{remotesensing}{9}
\bibcite{ghemawat}{10}
\bibcite{jellyfish}{11}
\bibcite{Ganapathi:EECS-2009-181}{12}
\bibcite{satellite}{13}
\bibcite{journals/pvldb/HerodotouB11}{14}
\bibcite{starfish}{15}
\bibcite{airlines}{16}
\bibcite{kambatla}{17}
\bibcite{cmureport}{18}
\bibcite{kushner}{19}
\bibcite{qn-sf}{20}
\bibcite{aroma}{21}
\bibcite{mronline}{22}
\bibcite{chen96}{23}
\bibcite{pavlo}{24}
\bibcite{tsc}{25}
\bibcite{rdsa}{26}
\bibcite{spall}{27}
\bibcite{Spall92multivariatestochastic}{28}
\bibcite{chen97}{29}
\bibcite{yarn}{30}
\bibcite{hadoop}{31}
\@writefile{toc}{\contentsline {section}{\numberline {8}References}{\thepage }{section.8}}
\bibcite{ppabs}{32}
